<?xml version="1.0" encoding="utf-8"  standalone="no"?>
<svg 
 width="600" height="480"
 viewBox="0 0 600 480"
 xmlns="http://www.w3.org/2000/svg"
 xmlns:xlink="http://www.w3.org/1999/xlink"
>

<title>Gnuplot</title>
<desc>Produced by GNUPLOT 5.2 patchlevel 2 </desc>

<g id="gnuplot_canvas">

<rect x="0" y="0" width="600" height="480" fill="none"/>
<defs>

	<circle id='gpDot' r='0.5' stroke-width='0.5'/>
	<path id='gpPt0' stroke-width='0.222' stroke='currentColor' d='M-1,0 h2 M0,-1 v2'/>
	<path id='gpPt1' stroke-width='0.222' stroke='currentColor' d='M-1,-1 L1,1 M1,-1 L-1,1'/>
	<path id='gpPt2' stroke-width='0.222' stroke='currentColor' d='M-1,0 L1,0 M0,-1 L0,1 M-1,-1 L1,1 M-1,1 L1,-1'/>
	<rect id='gpPt3' stroke-width='0.222' stroke='currentColor' x='-1' y='-1' width='2' height='2'/>
	<rect id='gpPt4' stroke-width='0.222' stroke='currentColor' fill='currentColor' x='-1' y='-1' width='2' height='2'/>
	<circle id='gpPt5' stroke-width='0.222' stroke='currentColor' cx='0' cy='0' r='1'/>
	<use xlink:href='#gpPt5' id='gpPt6' fill='currentColor' stroke='none'/>
	<path id='gpPt7' stroke-width='0.222' stroke='currentColor' d='M0,-1.33 L-1.33,0.67 L1.33,0.67 z'/>
	<use xlink:href='#gpPt7' id='gpPt8' fill='currentColor' stroke='none'/>
	<use xlink:href='#gpPt7' id='gpPt9' stroke='currentColor' transform='rotate(180)'/>
	<use xlink:href='#gpPt9' id='gpPt10' fill='currentColor' stroke='none'/>
	<use xlink:href='#gpPt3' id='gpPt11' stroke='currentColor' transform='rotate(45)'/>
	<use xlink:href='#gpPt11' id='gpPt12' fill='currentColor' stroke='none'/>
	<path id='gpPt13' stroke-width='0.222' stroke='currentColor' d='M0,1.330 L1.265,0.411 L0.782,-1.067 L-0.782,-1.076 L-1.265,0.411 z'/>
	<use xlink:href='#gpPt13' id='gpPt14' fill='currentColor' stroke='none'/>
	<filter id='textbox' filterUnits='objectBoundingBox' x='0' y='0' height='1' width='1'>
	  <feFlood flood-color='white' flood-opacity='1' result='bgnd'/>
	  <feComposite in='SourceGraphic' in2='bgnd' operator='atop'/>
	</filter>
	<filter id='greybox' filterUnits='objectBoundingBox' x='0' y='0' height='1' width='1'>
	  <feFlood flood-color='lightgrey' flood-opacity='1' result='grey'/>
	  <feComposite in='SourceGraphic' in2='grey' operator='atop'/>
	</filter>
</defs>
<g fill="none" color="white" stroke="currentColor" stroke-width="1.00" stroke-linecap="butt" stroke-linejoin="miter">
</g>
<g fill="none" color="black" stroke="currentColor" stroke-width="1.00" stroke-linecap="butt" stroke-linejoin="miter">
</g>
<g fill="none" color="black" stroke="black" stroke-width="0.50" stroke-linecap="butt" stroke-linejoin="miter">
</g>
<g fill="none" color="gray" stroke="currentColor" stroke-width="0.50" stroke-linecap="butt" stroke-linejoin="miter">
	<path stroke='gray' stroke-dasharray='2,4' class="gridline"  d='M80.9,413.4 L366.1,413.4  '/></g>
<g fill="none" color="gray" stroke="gray" stroke-width="1.00" stroke-linecap="butt" stroke-linejoin="miter">
</g>
<g fill="none" color="black" stroke="currentColor" stroke-width="1.00" stroke-linecap="butt" stroke-linejoin="miter">
	<path stroke='black'  d='M80.9,413.4 L71.9,413.4 M366.1,413.4 L375.1,413.4  '/>	<g transform="translate(63.6,417.3)" stroke="none" fill="black" font-family="Arial" font-size="12.00"  text-anchor="end">
		<text><tspan font-family="Arial" > 0</tspan></text>
	</g>
</g>
<g fill="none" color="black" stroke="currentColor" stroke-width="1.00" stroke-linecap="butt" stroke-linejoin="miter">
</g>
<g fill="none" color="black" stroke="black" stroke-width="0.50" stroke-linecap="butt" stroke-linejoin="miter">
</g>
<g fill="none" color="gray" stroke="currentColor" stroke-width="0.50" stroke-linecap="butt" stroke-linejoin="miter">
	<path stroke='gray' stroke-dasharray='2,4' class="gridline"  d='M80.9,353.5 L366.1,353.5  '/></g>
<g fill="none" color="gray" stroke="gray" stroke-width="1.00" stroke-linecap="butt" stroke-linejoin="miter">
</g>
<g fill="none" color="black" stroke="currentColor" stroke-width="1.00" stroke-linecap="butt" stroke-linejoin="miter">
	<path stroke='black'  d='M80.9,353.5 L71.9,353.5 M366.1,353.5 L375.1,353.5  '/>	<g transform="translate(63.6,357.4)" stroke="none" fill="black" font-family="Arial" font-size="12.00"  text-anchor="end">
		<text><tspan font-family="Arial" > 0.5</tspan></text>
	</g>
</g>
<g fill="none" color="black" stroke="currentColor" stroke-width="1.00" stroke-linecap="butt" stroke-linejoin="miter">
</g>
<g fill="none" color="black" stroke="black" stroke-width="0.50" stroke-linecap="butt" stroke-linejoin="miter">
</g>
<g fill="none" color="gray" stroke="currentColor" stroke-width="0.50" stroke-linecap="butt" stroke-linejoin="miter">
	<path stroke='gray' stroke-dasharray='2,4' class="gridline"  d='M80.9,293.6 L366.1,293.6  '/></g>
<g fill="none" color="gray" stroke="gray" stroke-width="1.00" stroke-linecap="butt" stroke-linejoin="miter">
</g>
<g fill="none" color="black" stroke="currentColor" stroke-width="1.00" stroke-linecap="butt" stroke-linejoin="miter">
	<path stroke='black'  d='M80.9,293.6 L71.9,293.6 M366.1,293.6 L375.1,293.6  '/>	<g transform="translate(63.6,297.5)" stroke="none" fill="black" font-family="Arial" font-size="12.00"  text-anchor="end">
		<text><tspan font-family="Arial" > 1</tspan></text>
	</g>
</g>
<g fill="none" color="black" stroke="currentColor" stroke-width="1.00" stroke-linecap="butt" stroke-linejoin="miter">
</g>
<g fill="none" color="black" stroke="black" stroke-width="0.50" stroke-linecap="butt" stroke-linejoin="miter">
</g>
<g fill="none" color="gray" stroke="currentColor" stroke-width="0.50" stroke-linecap="butt" stroke-linejoin="miter">
	<path stroke='gray' stroke-dasharray='2,4' class="gridline"  d='M80.9,233.7 L366.1,233.7  '/></g>
<g fill="none" color="gray" stroke="gray" stroke-width="1.00" stroke-linecap="butt" stroke-linejoin="miter">
</g>
<g fill="none" color="black" stroke="currentColor" stroke-width="1.00" stroke-linecap="butt" stroke-linejoin="miter">
	<path stroke='black'  d='M80.9,233.7 L71.9,233.7 M366.1,233.7 L375.1,233.7  '/>	<g transform="translate(63.6,237.6)" stroke="none" fill="black" font-family="Arial" font-size="12.00"  text-anchor="end">
		<text><tspan font-family="Arial" > 1.5</tspan></text>
	</g>
</g>
<g fill="none" color="black" stroke="currentColor" stroke-width="1.00" stroke-linecap="butt" stroke-linejoin="miter">
</g>
<g fill="none" color="black" stroke="black" stroke-width="0.50" stroke-linecap="butt" stroke-linejoin="miter">
</g>
<g fill="none" color="gray" stroke="currentColor" stroke-width="0.50" stroke-linecap="butt" stroke-linejoin="miter">
	<path stroke='gray' stroke-dasharray='2,4' class="gridline"  d='M80.9,173.9 L366.1,173.9  '/></g>
<g fill="none" color="gray" stroke="gray" stroke-width="1.00" stroke-linecap="butt" stroke-linejoin="miter">
</g>
<g fill="none" color="black" stroke="currentColor" stroke-width="1.00" stroke-linecap="butt" stroke-linejoin="miter">
	<path stroke='black'  d='M80.9,173.9 L71.9,173.9 M366.1,173.9 L375.1,173.9  '/>	<g transform="translate(63.6,177.8)" stroke="none" fill="black" font-family="Arial" font-size="12.00"  text-anchor="end">
		<text><tspan font-family="Arial" > 2</tspan></text>
	</g>
</g>
<g fill="none" color="black" stroke="currentColor" stroke-width="1.00" stroke-linecap="butt" stroke-linejoin="miter">
</g>
<g fill="none" color="black" stroke="black" stroke-width="0.50" stroke-linecap="butt" stroke-linejoin="miter">
</g>
<g fill="none" color="gray" stroke="currentColor" stroke-width="0.50" stroke-linecap="butt" stroke-linejoin="miter">
	<path stroke='gray' stroke-dasharray='2,4' class="gridline"  d='M80.9,114.0 L366.1,114.0  '/></g>
<g fill="none" color="gray" stroke="gray" stroke-width="1.00" stroke-linecap="butt" stroke-linejoin="miter">
</g>
<g fill="none" color="black" stroke="currentColor" stroke-width="1.00" stroke-linecap="butt" stroke-linejoin="miter">
	<path stroke='black'  d='M80.9,114.0 L71.9,114.0 M366.1,114.0 L375.1,114.0  '/>	<g transform="translate(63.6,117.9)" stroke="none" fill="black" font-family="Arial" font-size="12.00"  text-anchor="end">
		<text><tspan font-family="Arial" > 2.5</tspan></text>
	</g>
</g>
<g fill="none" color="black" stroke="currentColor" stroke-width="1.00" stroke-linecap="butt" stroke-linejoin="miter">
</g>
<g fill="none" color="black" stroke="black" stroke-width="0.50" stroke-linecap="butt" stroke-linejoin="miter">
</g>
<g fill="none" color="gray" stroke="currentColor" stroke-width="0.50" stroke-linecap="butt" stroke-linejoin="miter">
	<path stroke='gray' stroke-dasharray='2,4' class="gridline"  d='M80.9,54.1 L366.1,54.1  '/></g>
<g fill="none" color="gray" stroke="gray" stroke-width="1.00" stroke-linecap="butt" stroke-linejoin="miter">
</g>
<g fill="none" color="black" stroke="currentColor" stroke-width="1.00" stroke-linecap="butt" stroke-linejoin="miter">
	<path stroke='black'  d='M80.9,54.1 L71.9,54.1 M366.1,54.1 L375.1,54.1  '/>	<g transform="translate(63.6,58.0)" stroke="none" fill="black" font-family="Arial" font-size="12.00"  text-anchor="end">
		<text><tspan font-family="Arial" > 3</tspan></text>
	</g>
</g>
<g fill="none" color="black" stroke="currentColor" stroke-width="1.00" stroke-linecap="butt" stroke-linejoin="miter">
</g>
<g fill="none" color="black" stroke="black" stroke-width="0.50" stroke-linecap="butt" stroke-linejoin="miter">
</g>
<g fill="none" color="gray" stroke="currentColor" stroke-width="0.50" stroke-linecap="butt" stroke-linejoin="miter">
	<path stroke='gray' stroke-dasharray='2,4' class="gridline"  d='M80.9,413.4 L80.9,54.1  '/></g>
<g fill="none" color="gray" stroke="gray" stroke-width="1.00" stroke-linecap="butt" stroke-linejoin="miter">
</g>
<g fill="none" color="black" stroke="currentColor" stroke-width="1.00" stroke-linecap="butt" stroke-linejoin="miter">
	<path stroke='black'  d='M80.9,413.4 L80.9,422.4 M80.9,54.1 L80.9,45.1  '/>	<g transform="translate(80.9,444.3)" stroke="none" fill="black" font-family="Arial" font-size="12.00"  text-anchor="middle">
		<text><tspan font-family="Arial" > 0</tspan></text>
	</g>
</g>
<g fill="none" color="black" stroke="currentColor" stroke-width="1.00" stroke-linecap="butt" stroke-linejoin="miter">
</g>
<g fill="none" color="black" stroke="black" stroke-width="0.50" stroke-linecap="butt" stroke-linejoin="miter">
</g>
<g fill="none" color="gray" stroke="currentColor" stroke-width="0.50" stroke-linecap="butt" stroke-linejoin="miter">
	<path stroke='gray' stroke-dasharray='2,4' class="gridline"  d='M121.6,413.4 L121.6,54.1  '/></g>
<g fill="none" color="gray" stroke="gray" stroke-width="1.00" stroke-linecap="butt" stroke-linejoin="miter">
</g>
<g fill="none" color="black" stroke="currentColor" stroke-width="1.00" stroke-linecap="butt" stroke-linejoin="miter">
	<path stroke='black'  d='M121.6,413.4 L121.6,422.4 M121.6,54.1 L121.6,45.1  '/>	<g transform="translate(121.6,444.3)" stroke="none" fill="black" font-family="Arial" font-size="12.00"  text-anchor="middle">
		<text><tspan font-family="Arial" > 1</tspan></text>
	</g>
</g>
<g fill="none" color="black" stroke="currentColor" stroke-width="1.00" stroke-linecap="butt" stroke-linejoin="miter">
</g>
<g fill="none" color="black" stroke="black" stroke-width="0.50" stroke-linecap="butt" stroke-linejoin="miter">
</g>
<g fill="none" color="gray" stroke="currentColor" stroke-width="0.50" stroke-linecap="butt" stroke-linejoin="miter">
	<path stroke='gray' stroke-dasharray='2,4' class="gridline"  d='M162.4,413.4 L162.4,54.1  '/></g>
<g fill="none" color="gray" stroke="gray" stroke-width="1.00" stroke-linecap="butt" stroke-linejoin="miter">
</g>
<g fill="none" color="black" stroke="currentColor" stroke-width="1.00" stroke-linecap="butt" stroke-linejoin="miter">
	<path stroke='black'  d='M162.4,413.4 L162.4,422.4 M162.4,54.1 L162.4,45.1  '/>	<g transform="translate(162.4,444.3)" stroke="none" fill="black" font-family="Arial" font-size="12.00"  text-anchor="middle">
		<text><tspan font-family="Arial" > 2</tspan></text>
	</g>
</g>
<g fill="none" color="black" stroke="currentColor" stroke-width="1.00" stroke-linecap="butt" stroke-linejoin="miter">
</g>
<g fill="none" color="black" stroke="black" stroke-width="0.50" stroke-linecap="butt" stroke-linejoin="miter">
</g>
<g fill="none" color="gray" stroke="currentColor" stroke-width="0.50" stroke-linecap="butt" stroke-linejoin="miter">
	<path stroke='gray' stroke-dasharray='2,4' class="gridline"  d='M203.1,413.4 L203.1,54.1  '/></g>
<g fill="none" color="gray" stroke="gray" stroke-width="1.00" stroke-linecap="butt" stroke-linejoin="miter">
</g>
<g fill="none" color="black" stroke="currentColor" stroke-width="1.00" stroke-linecap="butt" stroke-linejoin="miter">
	<path stroke='black'  d='M203.1,413.4 L203.1,422.4 M203.1,54.1 L203.1,45.1  '/>	<g transform="translate(203.1,444.3)" stroke="none" fill="black" font-family="Arial" font-size="12.00"  text-anchor="middle">
		<text><tspan font-family="Arial" > 3</tspan></text>
	</g>
</g>
<g fill="none" color="black" stroke="currentColor" stroke-width="1.00" stroke-linecap="butt" stroke-linejoin="miter">
</g>
<g fill="none" color="black" stroke="black" stroke-width="0.50" stroke-linecap="butt" stroke-linejoin="miter">
</g>
<g fill="none" color="gray" stroke="currentColor" stroke-width="0.50" stroke-linecap="butt" stroke-linejoin="miter">
	<path stroke='gray' stroke-dasharray='2,4' class="gridline"  d='M243.9,413.4 L243.9,54.1  '/></g>
<g fill="none" color="gray" stroke="gray" stroke-width="1.00" stroke-linecap="butt" stroke-linejoin="miter">
</g>
<g fill="none" color="black" stroke="currentColor" stroke-width="1.00" stroke-linecap="butt" stroke-linejoin="miter">
	<path stroke='black'  d='M243.9,413.4 L243.9,422.4 M243.9,54.1 L243.9,45.1  '/>	<g transform="translate(243.9,444.3)" stroke="none" fill="black" font-family="Arial" font-size="12.00"  text-anchor="middle">
		<text><tspan font-family="Arial" > 4</tspan></text>
	</g>
</g>
<g fill="none" color="black" stroke="currentColor" stroke-width="1.00" stroke-linecap="butt" stroke-linejoin="miter">
</g>
<g fill="none" color="black" stroke="black" stroke-width="0.50" stroke-linecap="butt" stroke-linejoin="miter">
</g>
<g fill="none" color="gray" stroke="currentColor" stroke-width="0.50" stroke-linecap="butt" stroke-linejoin="miter">
	<path stroke='gray' stroke-dasharray='2,4' class="gridline"  d='M284.6,413.4 L284.6,54.1  '/></g>
<g fill="none" color="gray" stroke="gray" stroke-width="1.00" stroke-linecap="butt" stroke-linejoin="miter">
</g>
<g fill="none" color="black" stroke="currentColor" stroke-width="1.00" stroke-linecap="butt" stroke-linejoin="miter">
	<path stroke='black'  d='M284.6,413.4 L284.6,422.4 M284.6,54.1 L284.6,45.1  '/>	<g transform="translate(284.6,444.3)" stroke="none" fill="black" font-family="Arial" font-size="12.00"  text-anchor="middle">
		<text><tspan font-family="Arial" > 5</tspan></text>
	</g>
</g>
<g fill="none" color="black" stroke="currentColor" stroke-width="1.00" stroke-linecap="butt" stroke-linejoin="miter">
</g>
<g fill="none" color="black" stroke="black" stroke-width="0.50" stroke-linecap="butt" stroke-linejoin="miter">
</g>
<g fill="none" color="gray" stroke="currentColor" stroke-width="0.50" stroke-linecap="butt" stroke-linejoin="miter">
	<path stroke='gray' stroke-dasharray='2,4' class="gridline"  d='M325.4,413.4 L325.4,54.1  '/></g>
<g fill="none" color="gray" stroke="gray" stroke-width="1.00" stroke-linecap="butt" stroke-linejoin="miter">
</g>
<g fill="none" color="black" stroke="currentColor" stroke-width="1.00" stroke-linecap="butt" stroke-linejoin="miter">
	<path stroke='black'  d='M325.4,413.4 L325.4,422.4 M325.4,54.1 L325.4,45.1  '/>	<g transform="translate(325.4,444.3)" stroke="none" fill="black" font-family="Arial" font-size="12.00"  text-anchor="middle">
		<text><tspan font-family="Arial" > 6</tspan></text>
	</g>
</g>
<g fill="none" color="black" stroke="currentColor" stroke-width="1.00" stroke-linecap="butt" stroke-linejoin="miter">
</g>
<g fill="none" color="black" stroke="black" stroke-width="0.50" stroke-linecap="butt" stroke-linejoin="miter">
</g>
<g fill="none" color="gray" stroke="currentColor" stroke-width="0.50" stroke-linecap="butt" stroke-linejoin="miter">
	<path stroke='gray' stroke-dasharray='2,4' class="gridline"  d='M366.1,413.4 L366.1,54.1  '/></g>
<g fill="none" color="gray" stroke="gray" stroke-width="1.00" stroke-linecap="butt" stroke-linejoin="miter">
</g>
<g fill="none" color="black" stroke="currentColor" stroke-width="1.00" stroke-linecap="butt" stroke-linejoin="miter">
	<path stroke='black'  d='M366.1,413.4 L366.1,422.4 M366.1,54.1 L366.1,45.1  '/>	<g transform="translate(366.1,444.3)" stroke="none" fill="black" font-family="Arial" font-size="12.00"  text-anchor="middle">
		<text><tspan font-family="Arial" > 7</tspan></text>
	</g>
</g>
<g fill="none" color="black" stroke="currentColor" stroke-width="1.00" stroke-linecap="butt" stroke-linejoin="miter">
</g>
<g fill="none" color="black" stroke="currentColor" stroke-width="1.00" stroke-linecap="butt" stroke-linejoin="miter">
	<path stroke='black'  d='M80.9,54.1 L80.9,413.4 L366.1,413.4 L366.1,54.1 L80.9,54.1 Z  '/></g>
<g fill="none" color="black" stroke="currentColor" stroke-width="1.00" stroke-linecap="butt" stroke-linejoin="miter">
	<g transform="translate(16.3,233.8) rotate(270)" stroke="none" fill="black" font-family="Arial" font-size="12.00"  text-anchor="middle">
		<text><tspan font-family="Arial" >Energy</tspan></text>
	</g>
</g>
<g fill="none" color="black" stroke="currentColor" stroke-width="1.00" stroke-linecap="butt" stroke-linejoin="miter">
	<g transform="translate(223.5,471.3)" stroke="none" fill="black" font-family="Arial" font-size="12.00"  text-anchor="middle">
		<text><tspan font-family="Arial" >Alpha</tspan></text>
	</g>
</g>
<g fill="none" color="black" stroke="currentColor" stroke-width="1.00" stroke-linecap="butt" stroke-linejoin="miter">
	<g transform="translate(223.5,31.0)" stroke="none" fill="black" font-family="Arial" font-size="12.00"  text-anchor="middle">
		<text><tspan font-family="Arial" >1D Harmonic Oscillator from the variational method</tspan></text>
	</g>
</g>
	<g id="gnuplot_plot_1" ><title>Expectation Value</title>
<g fill="none" color="black" stroke="currentColor" stroke-width="1.00" stroke-linecap="butt" stroke-linejoin="miter">
	<g transform="translate(532.8,67.0)" stroke="none" fill="black" font-family="Arial" font-size="12.00"  text-anchor="end">
		<text><tspan font-family="Arial" >Expectation Value</tspan></text>
	</g>
</g>
<g fill="none" color="black" stroke="currentColor" stroke-width="1.00" stroke-linecap="butt" stroke-linejoin="miter">
	<path stroke='rgb(148,   0, 211)'  d='M541.1,63.1 L583.3,63.1 M85.0,111.0 L85.4,137.9 L85.8,160.3 L86.2,179.2 L86.6,195.3 L87.0,209.3
		L87.4,221.5 L87.8,232.2 L88.2,241.7 L88.6,250.1 L89.0,257.7 L89.5,264.5 L89.9,270.7 L90.3,276.3
		L90.7,281.5 L91.1,286.1 L91.5,290.5 L91.9,294.4 L92.3,298.1 L92.7,301.5 L93.1,304.6 L93.5,307.5
		L93.9,310.3 L94.3,312.8 L94.8,315.2 L95.2,317.4 L95.6,319.4 L96.0,321.4 L96.4,323.2 L96.8,324.9
		L97.2,326.6 L97.6,328.1 L98.0,329.5 L98.4,330.9 L98.8,332.2 L99.2,333.4 L99.6,334.5 L100.0,335.6
		L100.5,336.6 L100.9,337.6 L101.3,338.5 L101.7,339.4 L102.1,340.3 L102.5,341.0 L102.9,341.8 L103.3,342.5
		L103.7,343.2 L104.1,343.8 L104.5,344.4 L104.9,345.0 L105.3,345.5 L105.8,346.1 L106.2,346.5 L106.6,347.0
		L107.0,347.5 L107.4,347.9 L107.8,348.3 L108.2,348.7 L108.6,349.0 L109.0,349.3 L109.4,349.7 L109.8,350.0
		L110.2,350.3 L110.6,350.5 L111.0,350.8 L111.5,351.0 L111.9,351.2 L112.3,351.5 L112.7,351.7 L113.1,351.8
		L113.5,352.0 L113.9,352.2 L114.3,352.3 L114.7,352.5 L115.1,352.6 L115.5,352.7 L115.9,352.8 L116.3,352.9
		L116.8,353.0 L117.2,353.1 L117.6,353.2 L118.0,353.3 L118.4,353.3 L118.8,353.4 L119.2,353.4 L119.6,353.4
		L120.0,353.5 L120.4,353.5 L120.8,353.5 L121.2,353.5 L121.6,353.5 L122.1,353.5 L122.5,353.5 L122.9,353.5
		L123.3,353.5 L123.7,353.4 L124.1,353.4 L124.5,353.4 L124.9,353.3 L125.3,353.3 L125.7,353.2 L126.1,353.2
		L126.5,353.1 L126.9,353.1 L127.3,353.0 L127.8,352.9 L128.2,352.9 L128.6,352.8 L129.0,352.7 L129.4,352.6
		L129.8,352.5 L130.2,352.4 L130.6,352.3 L131.0,352.2 L131.4,352.1 L131.8,352.0 L132.2,351.9 L132.6,351.8
		L133.1,351.7 L133.5,351.6 L133.9,351.4 L134.3,351.3 L134.7,351.2 L135.1,351.1 L135.5,350.9 L135.9,350.8
		L136.3,350.7 L136.7,350.5 L137.1,350.4 L137.5,350.2 L137.9,350.1 L138.3,349.9 L138.8,349.8 L139.2,349.6
		L139.6,349.5 L140.0,349.3 L140.4,349.2 L140.8,349.0 L141.2,348.9 L141.6,348.7 L142.0,348.5 L142.4,348.4
		L142.8,348.2 L143.2,348.0 L143.6,347.8 L144.1,347.7 L144.5,347.5 L144.9,347.3 L145.3,347.1 L145.7,347.0
		L146.1,346.8 L146.5,346.6 L146.9,346.4 L147.3,346.2 L147.7,346.0 L148.1,345.8 L148.5,345.7 L148.9,345.5
		L149.3,345.3 L149.8,345.1 L150.2,344.9 L150.6,344.7 L151.0,344.5 L151.4,344.3 L151.8,344.1 L152.2,343.9
		L152.6,343.7 L153.0,343.5 L153.4,343.3 L153.8,343.1 L154.2,342.9 L154.6,342.7 L155.1,342.5 L155.5,342.2
		L155.9,342.0 L156.3,341.8 L156.7,341.6 L157.1,341.4 L157.5,341.2 L157.9,341.0 L158.3,340.8 L158.7,340.5
		L159.1,340.3 L159.5,340.1 L159.9,339.9 L160.3,339.7 L160.8,339.4 L161.2,339.2 L161.6,339.0 L162.0,338.8
		L162.4,338.5 L162.8,338.3 L163.2,338.1 L163.6,337.9 L164.0,337.6 L164.4,337.4 L164.8,337.2 L165.2,337.0
		L165.6,336.7 L166.1,336.5 L166.5,336.3 L166.9,336.0 L167.3,335.8 L167.7,335.6 L168.1,335.3 L168.5,335.1
		L168.9,334.9 L169.3,334.6 L169.7,334.4 L170.1,334.2 L170.5,333.9 L170.9,333.7 L171.3,333.4 L171.8,333.2
		L172.2,333.0 L172.6,332.7 L173.0,332.5 L173.4,332.2 L173.8,332.0 L174.2,331.8 L174.6,331.5 L175.0,331.3
		L175.4,331.0 L175.8,330.8 L176.2,330.5 L176.6,330.3 L177.1,330.1 L177.5,329.8 L177.9,329.6 L178.3,329.3
		L178.7,329.1 L179.1,328.8 L179.5,328.6 L179.9,328.3 L180.3,328.1 L180.7,327.8 L181.1,327.6 L181.5,327.3
		L181.9,327.1 L182.3,326.8 L182.8,326.6 L183.2,326.3 L183.6,326.1 L184.0,325.8 L184.4,325.6 L184.8,325.3
		L185.2,325.1 L185.6,324.8 L186.0,324.5 L186.4,324.3 L186.8,324.0 L187.2,323.8 L187.6,323.5 L188.1,323.3
		L188.5,323.0 L188.9,322.8 L189.3,322.5 L189.7,322.2 L190.1,322.0 L190.5,321.7 L190.9,321.5 L191.3,321.2
		L191.7,321.0 L192.1,320.7 L192.5,320.4 L192.9,320.2 L193.4,319.9 L193.8,319.7 L194.2,319.4 L194.6,319.1
		L195.0,318.9 L195.4,318.6 L195.8,318.3 L196.2,318.1 L196.6,317.8 L197.0,317.6 L197.4,317.3 L197.8,317.0
		L198.2,316.8 L198.6,316.5 L199.1,316.2 L199.5,316.0 L199.9,315.7 L200.3,315.5 L200.7,315.2 L201.1,314.9
		L201.5,314.7 L201.9,314.4 L202.3,314.1 L202.7,313.9 L203.1,313.6 L203.5,313.3 L203.9,313.1 L204.4,312.8
		L204.8,312.5 L205.2,312.3 L205.6,312.0 L206.0,311.7 L206.4,311.5 L206.8,311.2 L207.2,310.9 L207.6,310.7
		L208.0,310.4 L208.4,310.1 L208.8,309.8 L209.2,309.6 L209.6,309.3 L210.1,309.0 L210.5,308.8 L210.9,308.5
		L211.3,308.2 L211.7,308.0 L212.1,307.7 L212.5,307.4 L212.9,307.1 L213.3,306.9 L213.7,306.6 L214.1,306.3
		L214.5,306.1 L214.9,305.8 L215.4,305.5 L215.8,305.2 L216.2,305.0 L216.6,304.7 L217.0,304.4 L217.4,304.2
		L217.8,303.9 L218.2,303.6 L218.6,303.3 L219.0,303.1 L219.4,302.8 L219.8,302.5 L220.2,302.2 L220.6,302.0
		L221.1,301.7 L221.5,301.4 L221.9,301.1 L222.3,300.9 L222.7,300.6 L223.1,300.3 L223.5,300.0 L223.9,299.8
		L224.3,299.5 L224.7,299.2 L225.1,298.9 L225.5,298.7 L225.9,298.4 L226.4,298.1 L226.8,297.8 L227.2,297.6
		L227.6,297.3 L228.0,297.0 L228.4,296.7 L228.8,296.5 L229.2,296.2 L229.6,295.9 L230.0,295.6 L230.4,295.4
		L230.8,295.1 L231.2,294.8 L231.6,294.5 L232.1,294.2 L232.5,294.0 L232.9,293.7 L233.3,293.4 L233.7,293.1
		L234.1,292.9 L234.5,292.6 L234.9,292.3 L235.3,292.0 L235.7,291.7 L236.1,291.5 L236.5,291.2 L236.9,290.9
		L237.4,290.6 L237.8,290.3 L238.2,290.1 L238.6,289.8 L239.0,289.5 L239.4,289.2 L239.8,289.0 L240.2,288.7
		L240.6,288.4 L241.0,288.1 L241.4,287.8 L241.8,287.6 L242.2,287.3 L242.6,287.0 L243.1,286.7 L243.5,286.4
		L243.9,286.1 L244.3,285.9 L244.7,285.6 L245.1,285.3 L245.5,285.0 L245.9,284.7 L246.3,284.5 L246.7,284.2
		L247.1,283.9 L247.5,283.6 L247.9,283.3 L248.4,283.1 L248.8,282.8 L249.2,282.5 L249.6,282.2 L250.0,281.9
		L250.4,281.6 L250.8,281.4 L251.2,281.1 L251.6,280.8 L252.0,280.5 L252.4,280.2 L252.8,280.0 L253.2,279.7
		L253.6,279.4 L254.1,279.1 L254.5,278.8 L254.9,278.5 L255.3,278.3 L255.7,278.0 L256.1,277.7 L256.5,277.4
		L256.9,277.1 L257.3,276.8 L257.7,276.6 L258.1,276.3 L258.5,276.0 L258.9,275.7 L259.4,275.4 L259.8,275.1
		L260.2,274.9 L260.6,274.6 L261.0,274.3 L261.4,274.0 L261.8,273.7 L262.2,273.4 L262.6,273.1 L263.0,272.9
		L263.4,272.6 L263.8,272.3 L264.2,272.0 L264.7,271.7 L265.1,271.4 L265.5,271.2 L265.9,270.9 L266.3,270.6
		L266.7,270.3 L267.1,270.0 L267.5,269.7 L267.9,269.4 L268.3,269.2 L268.7,268.9 L269.1,268.6 L269.5,268.3
		L269.9,268.0 L270.4,267.7 L270.8,267.4 L271.2,267.2 L271.6,266.9 L272.0,266.6 L272.4,266.3 L272.8,266.0
		L273.2,265.7 L273.6,265.4 L274.0,265.2 L274.4,264.9 L274.8,264.6 L275.2,264.3 L275.7,264.0 L276.1,263.7
		L276.5,263.4 L276.9,263.2 L277.3,262.9 L277.7,262.6 L278.1,262.3 L278.5,262.0 L278.9,261.7 L279.3,261.4
		L279.7,261.1 L280.1,260.9 L280.5,260.6 L280.9,260.3 L281.4,260.0 L281.8,259.7 L282.2,259.4 L282.6,259.1
		L283.0,258.9 L283.4,258.6 L283.8,258.3 L284.2,258.0 L284.6,257.7 L285.0,257.4 L285.4,257.1 L285.8,256.8
		L286.2,256.6 L286.7,256.3 L287.1,256.0 L287.5,255.7 L287.9,255.4 L288.3,255.1 L288.7,254.8 L289.1,254.5
		L289.5,254.3 L289.9,254.0 L290.3,253.7 L290.7,253.4 L291.1,253.1 L291.5,252.8 L291.9,252.5 L292.4,252.2
		L292.8,251.9 L293.2,251.7 L293.6,251.4 L294.0,251.1 L294.4,250.8 L294.8,250.5 L295.2,250.2 L295.6,249.9
		L296.0,249.6 L296.4,249.3 L296.8,249.1 L297.2,248.8 L297.7,248.5 L298.1,248.2 L298.5,247.9 L298.9,247.6
		L299.3,247.3 L299.7,247.0 L300.1,246.7 L300.5,246.5 L300.9,246.2 L301.3,245.9 L301.7,245.6 L302.1,245.3
		L302.5,245.0 L302.9,244.7 L303.4,244.4 L303.8,244.1 L304.2,243.9 L304.6,243.6 L305.0,243.3 L305.4,243.0
		L305.8,242.7 L306.2,242.4 L306.6,242.1 L307.0,241.8 L307.4,241.5 L307.8,241.2 L308.2,241.0 L308.7,240.7
		L309.1,240.4 L309.5,240.1 L309.9,239.8 L310.3,239.5 L310.7,239.2 L311.1,238.9 L311.5,238.6 L311.9,238.4
		L312.3,238.1 L312.7,237.8 L313.1,237.5 L313.5,237.2 L313.9,236.9 L314.4,236.6 L314.8,236.3 L315.2,236.0
		L315.6,235.7 L316.0,235.4 L316.4,235.2 L316.8,234.9 L317.2,234.6 L317.6,234.3 L318.0,234.0 L318.4,233.7
		L318.8,233.4 L319.2,233.1 L319.7,232.8 L320.1,232.5 L320.5,232.3 L320.9,232.0 L321.3,231.7 L321.7,231.4
		L322.1,231.1 L322.5,230.8 L322.9,230.5 L323.3,230.2 L323.7,229.9 L324.1,229.6 L324.5,229.3 L324.9,229.1
		L325.4,228.8 L325.8,228.5 L326.2,228.2 L326.6,227.9 L327.0,227.6 L327.4,227.3 L327.8,227.0 L328.2,226.7
		L328.6,226.4 L329.0,226.1 L329.4,225.8 L329.8,225.6 L330.2,225.3 L330.7,225.0 L331.1,224.7 L331.5,224.4
		L331.9,224.1 L332.3,223.8 L332.7,223.5 L333.1,223.2 L333.5,222.9 L333.9,222.6 L334.3,222.3 L334.7,222.1
		L335.1,221.8 L335.5,221.5 L336.0,221.2 L336.4,220.9 L336.8,220.6  '/></g>
	</g>
<g fill="none" color="white" stroke="rgb(148,   0, 211)" stroke-width="2.00" stroke-linecap="butt" stroke-linejoin="miter">
</g>
<g fill="none" color="black" stroke="currentColor" stroke-width="2.00" stroke-linecap="butt" stroke-linejoin="miter">
</g>
<g fill="none" color="black" stroke="black" stroke-width="1.00" stroke-linecap="butt" stroke-linejoin="miter">
</g>
<g fill="none" color="black" stroke="currentColor" stroke-width="1.00" stroke-linecap="butt" stroke-linejoin="miter">
	<path stroke='black'  d='M80.9,54.1 L80.9,413.4 L366.1,413.4 L366.1,54.1 L80.9,54.1 Z  '/></g>
<g fill="none" color="black" stroke="currentColor" stroke-width="1.00" stroke-linecap="butt" stroke-linejoin="miter">
</g>
</g>
</svg>

